%!PS-Adobe-2.0 EPSF-1.2
%%BoundingBox: -9 -9 25 22
%%EndComments
0.4 setlinewidth
/Courier findfont 10 scalefont setfont
-8 13 moveto (comma) show
gsave 1 0 0 setrgbcolor
newpath 16 0 moveto 24 0 lineto stroke
newpath -8 0 moveto 0 0 lineto stroke
grestore
newpath 8 8 moveto 8 0 8 90 270 arc 8 -8 lineto 8 0 8 270 90 arc closepath  stroke
5 -3 moveto (,) show
showpage
