%!PS-Adobe-2.0 EPSF-1.2
%%BoundingBox: -9 -30 105 22
%%EndComments
0.4 setlinewidth
/Courier findfont 10 scalefont setfont
-8 13 moveto (eol) show
gsave 1 0 0 setrgbcolor
newpath 96 0 moveto 104 0 lineto stroke
newpath -8 0 moveto 0 0 lineto stroke
grestore
gsave 10 0 translate
newpath 8 8 moveto 8 0 8 90 270 arc 14 -8 lineto 14 0 8 270 90 arc closepath  stroke
5 -3 moveto (\\n) show
gsave
0 -21 translate
newpath 0 -8 moveto 0 8 lineto 76 8 lineto 76 -8 lineto closepath  stroke
gsave /Courier-Oblique findfont 10 scalefont setfont 5 -3 moveto (end of file) show grestore
gsave 1 0 0 setrgbcolor newpath 0 5 5 180 270 arc stroke newpath 76 0 moveto 76 5 5 270 360 arc stroke grestore
grestore
grestore
gsave 1 0 0 setrgbcolor newpath 32 0 moveto 96 -5 5 90 180 arc 91 -16 lineto stroke grestore
gsave 1 0 0 setrgbcolor newpath 5 -16 moveto 0 -5 5 0 90 arc 10 0 lineto stroke grestore
showpage
