%!PS-Adobe-2.0 EPSF-1.2
%%BoundingBox: -9 -66 141 22
%%EndComments
0.4 setlinewidth
/Courier findfont 10 scalefont setfont
-8 13 moveto (field) show
gsave 1 0 0 setrgbcolor
newpath 132 0 moveto 140 0 lineto stroke
newpath -8 0 moveto 0 0 lineto stroke
grestore
gsave 92 0 translate
newpath 0 -8 moveto 0 8 lineto 40 8 lineto 40 -8 lineto closepath  stroke
5 -3 moveto (comma) show
grestore
gsave 1 0 0 setrgbcolor newpath 84 0 moveto 92 0 lineto stroke grestore
gsave 5 -18 translate
gsave 5 0 translate
newpath 0 -8 moveto 0 8 lineto 58 8 lineto 58 -8 lineto closepath  stroke
gsave /Courier-Oblique findfont 10 scalefont setfont 5 -3 moveto (anything) show grestore
grestore
gsave 5 -34 translate
newpath 0 -8 moveto 0 8 lineto 64 8 lineto 64 -8 lineto closepath  stroke
5 -3 moveto (separator) show
grestore
gsave /Courier-Oblique findfont 10 scalefont setfont 5 -21 moveto (not) show grestore
gsave [3 3] 0 setdash newpath 0 -47 moveto 74 -47 lineto 74 13 lineto 0 13 lineto closepath stroke grestore
gsave 1 0 0 setrgbcolor newpath 69 -34 moveto 74 -34 lineto stroke grestore
gsave 1 0 0 setrgbcolor newpath 0 -34 moveto 5 -34 lineto stroke grestore
gsave 1 0 0 setrgbcolor newpath 63 0 moveto 74 0 lineto stroke grestore
gsave 1 0 0 setrgbcolor newpath 0 0 moveto 5 0 lineto stroke grestore
grestore
gsave 1 0 0 setrgbcolor newpath 79 -18 moveto 79 -13 5 270 360 arc 79 -5 5 0 90 arc stroke grestore
gsave 1 0 0 setrgbcolor newpath 5 0 moveto 5 -5 5 90 180 arc 5 -13 5 180 270 arc stroke grestore
gsave 1 0 0 setrgbcolor newpath 0 0 moveto 84 0 lineto stroke grestore
showpage
