%!PS-Adobe-2.0 EPSF-1.2
%%BoundingBox: -9 -87 191 22
%%EndComments
0.4 setlinewidth
/Courier findfont 10 scalefont setfont
-8 13 moveto (lastQuotedField) show
gsave 1 0 0 setrgbcolor
newpath 182 0 moveto 190 0 lineto stroke
newpath -8 0 moveto 0 0 lineto stroke
grestore
gsave 24 0 translate
gsave 106 0 translate
gsave 24 0 translate
newpath 0 -8 moveto 0 8 lineto 28 8 lineto 28 -8 lineto closepath  stroke
5 -3 moveto (eol) show
grestore
gsave 1 0 0 setrgbcolor newpath 16 0 moveto 24 0 lineto stroke grestore
newpath 8 8 moveto 8 0 8 90 270 arc 8 -8 lineto 8 0 8 270 90 arc closepath  stroke
5 -3 moveto (") show
grestore
gsave 1 0 0 setrgbcolor newpath 98 0 moveto 106 0 lineto stroke grestore
gsave 5 -18 translate
gsave 10 0 translate
gsave 5 0 translate
newpath 0 -8 moveto 0 8 lineto 58 8 lineto 58 -8 lineto closepath  stroke
gsave /Courier-Oblique findfont 10 scalefont setfont 5 -3 moveto (anything) show grestore
grestore
gsave 5 -34 translate
newpath 8 8 moveto 8 0 8 90 270 arc 8 -8 lineto 8 0 8 270 90 arc closepath  stroke
5 -3 moveto (") show
grestore
gsave /Courier-Oblique findfont 10 scalefont setfont 5 -21 moveto (not) show grestore
gsave [3 3] 0 setdash newpath 0 -47 moveto 68 -47 lineto 68 13 lineto 0 13 lineto closepath stroke grestore
gsave 1 0 0 setrgbcolor newpath 21 -34 moveto 68 -34 lineto stroke grestore
gsave 1 0 0 setrgbcolor newpath 0 -34 moveto 5 -34 lineto stroke grestore
gsave 1 0 0 setrgbcolor newpath 63 0 moveto 68 0 lineto stroke grestore
gsave 1 0 0 setrgbcolor newpath 0 0 moveto 5 0 lineto stroke grestore
gsave
0 -60 translate
newpath 8 8 moveto 8 0 8 90 270 arc 14 -8 lineto 14 0 8 270 90 arc closepath  stroke
5 -3 moveto ("") show
gsave 1 0 0 setrgbcolor newpath 0 5 5 180 270 arc stroke newpath 22 0 moveto 68 5 5 270 360 arc stroke grestore
grestore
grestore
gsave 1 0 0 setrgbcolor newpath 78 0 moveto 88 -5 5 90 180 arc 83 -55 lineto stroke grestore
gsave 1 0 0 setrgbcolor newpath 5 -55 moveto 0 -5 5 0 90 arc 10 0 lineto stroke grestore
grestore
gsave 1 0 0 setrgbcolor newpath 93 -18 moveto 93 -13 5 270 360 arc 93 -5 5 0 90 arc stroke grestore
gsave 1 0 0 setrgbcolor newpath 5 0 moveto 5 -5 5 90 180 arc 5 -13 5 180 270 arc stroke grestore
gsave 1 0 0 setrgbcolor newpath 0 0 moveto 98 0 lineto stroke grestore
grestore
gsave 1 0 0 setrgbcolor newpath 16 0 moveto 24 0 lineto stroke grestore
newpath 8 8 moveto 8 0 8 90 270 arc 8 -8 lineto 8 0 8 270 90 arc closepath  stroke
5 -3 moveto (") show
showpage
