%!PS-Adobe-2.0 EPSF-1.2
%%BoundingBox: -9 -30 129 22
%%EndComments
0.4 setlinewidth
/Courier findfont 10 scalefont setfont
-8 13 moveto (lastCell) show

newpath 120 0 moveto 128 0 lineto stroke
newpath -8 0 moveto 0 0 lineto stroke

gsave 10 0 translate
newpath 0 -8 moveto 0 8 lineto 100 8 lineto 100 -8 lineto closepath  stroke
5 -3 moveto (lastQuotedField) show
gsave
0 -21 translate
newpath 0 -8 moveto 0 8 lineto 64 8 lineto 64 -8 lineto closepath  stroke
5 -3 moveto (lastField) show
 newpath 0 5 5 180 270 arc stroke newpath 64 0 moveto 100 5 5 270 360 arc stroke 
grestore
grestore
 newpath 110 0 moveto 120 -5 5 90 180 arc 115 -16 lineto stroke 
 newpath 5 -16 moveto 0 -5 5 0 90 arc 10 0 lineto stroke 
showpage
