%!PS-Adobe-2.0 EPSF-1.2
%%BoundingBox: -9 -85 139 14
%%EndComments
0.4 setlinewidth
/Courier findfont 10 scalefont setfont
-8 5 moveto (lexer) show
gsave 1 0 0 setrgbcolor
newpath 130 0 moveto 138 0 lineto stroke
newpath -8 0 moveto 0 0 lineto stroke
grestore
gsave 5 -13 translate
gsave 10 0 translate
newpath 0 -8 moveto 0 8 lineto 76 8 lineto 76 -8 lineto closepath  stroke
5 -3 moveto (quotedField) show
gsave
0 -21 translate
newpath 0 -8 moveto 0 8 lineto 40 8 lineto 40 -8 lineto closepath  stroke
5 -3 moveto (field) show
gsave 1 0 0 setrgbcolor newpath 0 5 5 180 270 arc stroke newpath 40 0 moveto 100 5 5 270 360 arc stroke grestore
gsave
0 -21 translate
newpath 0 -8 moveto 0 8 lineto 100 8 lineto 100 -8 lineto closepath  stroke
5 -3 moveto (lastQuotedField) show
gsave 1 0 0 setrgbcolor newpath 0 5 5 180 270 arc stroke newpath 100 0 moveto 100 5 5 270 360 arc stroke grestore
gsave
0 -21 translate
newpath 0 -8 moveto 0 8 lineto 64 8 lineto 64 -8 lineto closepath  stroke
5 -3 moveto (lastField) show
gsave 1 0 0 setrgbcolor newpath 0 5 5 180 270 arc stroke newpath 64 0 moveto 100 5 5 270 360 arc stroke grestore
grestore
grestore
grestore
grestore
gsave 1 0 0 setrgbcolor newpath 86 0 moveto 120 -5 5 90 180 arc 115 -58 lineto stroke grestore
gsave 1 0 0 setrgbcolor newpath 5 -58 moveto 0 -5 5 0 90 arc 10 0 lineto stroke grestore
grestore
gsave 1 0 0 setrgbcolor newpath 125 -13 moveto 125 -8 5 270 360 arc 125 -5 5 0 90 arc stroke grestore
gsave 1 0 0 setrgbcolor newpath 5 0 moveto 5 -5 5 90 180 arc 5 -8 5 180 270 arc stroke grestore
gsave 1 0 0 setrgbcolor newpath 0 0 moveto 130 0 lineto stroke grestore
showpage
