%!PS-Adobe-2.0 EPSF-1.2
%%BoundingBox: -9 -22 119 22
%%EndComments
0.4 setlinewidth
/Courier findfont 10 scalefont setfont
-8 13 moveto (row) show

newpath 110 0 moveto 118 0 lineto stroke
newpath -8 0 moveto 0 0 lineto stroke

gsave 52 0 translate
newpath 0 -8 moveto 0 8 lineto 58 8 lineto 58 -8 lineto closepath  stroke
5 -3 moveto (lastCell) show
grestore
 newpath 44 0 moveto 52 0 lineto stroke 
gsave 5 -13 translate
newpath 0 -8 moveto 0 8 lineto 34 8 lineto 34 -8 lineto closepath  stroke
5 -3 moveto (cell) show
grestore
 newpath 39 -13 moveto 39 -8 5 270 360 arc 39 -5 5 0 90 arc stroke 
 newpath 5 0 moveto 5 -5 5 90 180 arc 5 -8 5 180 270 arc stroke 
 newpath 0 0 moveto 44 0 lineto stroke 
showpage
