%!PS-Adobe-2.0 EPSF-1.2
%%BoundingBox: -9 -30 69 22
%%EndComments
0.4 setlinewidth
/Courier findfont 10 scalefont setfont
-8 13 moveto (separator) show
gsave 1 0 0 setrgbcolor
newpath 60 0 moveto 68 0 lineto stroke
newpath -8 0 moveto 0 0 lineto stroke
grestore
gsave 10 0 translate
newpath 0 -8 moveto 0 8 lineto 40 8 lineto 40 -8 lineto closepath  stroke
5 -3 moveto (comma) show
gsave
0 -21 translate
newpath 0 -8 moveto 0 8 lineto 28 8 lineto 28 -8 lineto closepath  stroke
5 -3 moveto (eol) show
gsave 1 0 0 setrgbcolor newpath 0 5 5 180 270 arc stroke newpath 28 0 moveto 40 5 5 270 360 arc stroke grestore
grestore
grestore
gsave 1 0 0 setrgbcolor newpath 50 0 moveto 60 -5 5 90 180 arc 55 -16 lineto stroke grestore
gsave 1 0 0 setrgbcolor newpath 5 -16 moveto 0 -5 5 0 90 arc 10 0 lineto stroke grestore
showpage
