%!PS-Adobe-2.0 EPSF-1.2
%%BoundingBox: -9 -22 47 14
%%EndComments
0.4 setlinewidth
/Courier findfont 10 scalefont setfont
-8 5 moveto (table) show

newpath 38 0 moveto 46 0 lineto stroke
newpath -8 0 moveto 0 0 lineto stroke

gsave 5 -13 translate
newpath 0 -8 moveto 0 8 lineto 28 8 lineto 28 -8 lineto closepath  stroke
5 -3 moveto (row) show
grestore
 newpath 33 -13 moveto 33 -8 5 270 360 arc 33 -5 5 0 90 arc stroke 
 newpath 5 0 moveto 5 -5 5 90 180 arc 5 -8 5 180 270 arc stroke 
 newpath 0 0 moveto 38 0 lineto stroke 
showpage
